Climate Normals
…
Finding stations with specific measurements

The include data frame, normals_measurements contains a list of stations with their corresponding measurements. Be aware that this data might be out of date!

normals_measurements

## # A tibble: 307,891 x 5
##    prov  station_name climate_id normals   measurement            
##    <chr> <chr>        <chr>      <chr>     <chr>                  
##  1 AB    HORBURG      301C3D4    1981-2010 temp_daily_average     
##  2 AB    HORBURG      301C3D4    1981-2010 temp_daily_average_code
##  3 AB    HORBURG      301C3D4    1981-2010 temp_sd                
##  4 AB    HORBURG      301C3D4    1981-2010 temp_sd_code           
##  5 AB    HORBURG      301C3D4    1981-2010 temp_daily_max         
##  6 AB    HORBURG      301C3D4    1981-2010 temp_daily_max_code    
##  7 AB    HORBURG      301C3D4    1981-2010 temp_daily_min         
##  8 AB    HORBURG      301C3D4    1981-2010 temp_daily_min_code    
##  9 AB    HORBURG      301C3D4    1981-2010 temp_extreme_max       
## 10 AB    HORBURG      301C3D4    1981-2010 temp_extreme_max_code  
## # … with 307,881 more rows
…
